Library\Bee\artifacts\mvdfrm\Unity.Mathematics.ref.dll_14D1A32168A0AD59.mvfrm
Library\Bee\artifacts\mvdfrm\UnityEngine.UI.ref.dll_FAE6DBEA21006BE5.mvfrm
Library\Bee\artifacts\mvdfrm\UnityEngine.AccessibilityModule.dll_E764BB9B1C199D78.mvfrm
Library\Bee\artifacts\mvdfrm\UnityEngine.AIModule.dll_AB2FAC619F8BB982.mvfrm
Library\Bee\artifacts\mvdfrm\UnityEngine.AndroidJNIModule.dll_4E792CA3D6954040.mvfrm
Library\Bee\artifacts\mvdfrm\UnityEngine.AnimationModule.dll_3B51E47FA9065E1E.mvfrm
Library\Bee\artifacts\mvdfrm\UnityEngine.ARModule.dll_64A27164FCA9184B.mvfrm
Library\Bee\artifacts\mvdfrm\UnityEngine.AssetBundleModule.dll_705B71114168850C.mvfrm
Library\Bee\artifacts\mvdfrm\UnityEngine.AudioModule.dll_4280367077060790.mvfrm
Library\Bee\artifacts\mvdfrm\UnityEngine.ClothModule.dll_A968936B5122E674.mvfrm
Library\Bee\artifacts\mvdfrm\UnityEngine.ClusterInputModule.dll_AD2D857A9776356A.mvfrm
Library\Bee\artifacts\mvdfrm\UnityEngine.ClusterRendererModule.dll_018D43D812DAF3B7.mvfrm
Library\Bee\artifacts\mvdfrm\UnityEngine.CoreModule.dll_2282C1F72D4EA819.mvfrm
Library\Bee\artifacts\mvdfrm\UnityEngine.CrashReportingModule.dll_54B740BF3F84C551.mvfrm
Library\Bee\artifacts\mvdfrm\UnityEngine.DirectorModule.dll_64E24803E923B476.mvfrm
Library\Bee\artifacts\mvdfrm\UnityEngine.dll_2C427346A8F3262C.mvfrm
Library\Bee\artifacts\mvdfrm\UnityEngine.DSPGraphModule.dll_6A33A96D5B848597.mvfrm
Library\Bee\artifacts\mvdfrm\UnityEngine.GameCenterModule.dll_78C676BE9CD63131.mvfrm
Library\Bee\artifacts\mvdfrm\UnityEngine.GIModule.dll_436BF56F3B3AA19C.mvfrm
Library\Bee\artifacts\mvdfrm\UnityEngine.GridModule.dll_FFF3DDE545A33E10.mvfrm
Library\Bee\artifacts\mvdfrm\UnityEngine.HotReloadModule.dll_BC9AA285843979A0.mvfrm
Library\Bee\artifacts\mvdfrm\UnityEngine.ImageConversionModule.dll_6D7F418894FFABAB.mvfrm
Library\Bee\artifacts\mvdfrm\UnityEngine.IMGUIModule.dll_7ADFD5D73D379B71.mvfrm
Library\Bee\artifacts\mvdfrm\UnityEngine.InputLegacyModule.dll_01A08C2FD95A3AFD.mvfrm
Library\Bee\artifacts\mvdfrm\UnityEngine.InputModule.dll_A8F5FE20ED3E2C34.mvfrm
Library\Bee\artifacts\mvdfrm\UnityEngine.JSONSerializeModule.dll_477C44D71B54FE02.mvfrm
Library\Bee\artifacts\mvdfrm\UnityEngine.LocalizationModule.dll_EB7A4FCD2EF22863.mvfrm
Library\Bee\artifacts\mvdfrm\UnityEngine.ParticleSystemModule.dll_A7C98A0BAD9650DF.mvfrm
Library\Bee\artifacts\mvdfrm\UnityEngine.PerformanceReportingModule.dll_8B70020903F295D8.mvfrm
Library\Bee\artifacts\mvdfrm\UnityEngine.Physics2DModule.dll_87F7D4704A0355B3.mvfrm
Library\Bee\artifacts\mvdfrm\UnityEngine.PhysicsModule.dll_DA8F090791F94461.mvfrm
Library\Bee\artifacts\mvdfrm\UnityEngine.ProfilerModule.dll_9728813A827D3B83.mvfrm
Library\Bee\artifacts\mvdfrm\UnityEngine.RuntimeInitializeOnLoadManagerInitializerModule.dll_926C64E71224AC7C.mvfrm
Library\Bee\artifacts\mvdfrm\UnityEngine.ScreenCaptureModule.dll_6163F25C2FC12A64.mvfrm
Library\Bee\artifacts\mvdfrm\UnityEngine.SharedInternalsModule.dll_F190805E0C2DA6FB.mvfrm
Library\Bee\artifacts\mvdfrm\UnityEngine.SpriteMaskModule.dll_61F2E94EBE45C6AB.mvfrm
Library\Bee\artifacts\mvdfrm\UnityEngine.SpriteShapeModule.dll_89BC9E6BF70ABD16.mvfrm
Library\Bee\artifacts\mvdfrm\UnityEngine.StreamingModule.dll_EFE6D1CFF88E155C.mvfrm
Library\Bee\artifacts\mvdfrm\UnityEngine.SubstanceModule.dll_CC91E61943E1136A.mvfrm
Library\Bee\artifacts\mvdfrm\UnityEngine.SubsystemsModule.dll_CCA04FB08C8DAEBE.mvfrm
Library\Bee\artifacts\mvdfrm\UnityEngine.TerrainModule.dll_F4D5847667B78D4F.mvfrm
Library\Bee\artifacts\mvdfrm\UnityEngine.TerrainPhysicsModule.dll_A84432DEC6D94B6C.mvfrm
Library\Bee\artifacts\mvdfrm\UnityEngine.TextCoreFontEngineModule.dll_B3803A3A0344A977.mvfrm
Library\Bee\artifacts\mvdfrm\UnityEngine.TextCoreTextEngineModule.dll_FB6870AB92C86295.mvfrm
Library\Bee\artifacts\mvdfrm\UnityEngine.TextRenderingModule.dll_8AA36466E6F8AA59.mvfrm
Library\Bee\artifacts\mvdfrm\UnityEngine.TilemapModule.dll_93D1EBF77F746E58.mvfrm
Library\Bee\artifacts\mvdfrm\UnityEngine.TLSModule.dll_009AE787CE7E14F5.mvfrm
Library\Bee\artifacts\mvdfrm\UnityEngine.UIElementsModule.dll_D0DEB1188FB9EAB5.mvfrm
Library\Bee\artifacts\mvdfrm\UnityEngine.UIElementsNativeModule.dll_FB7A006CA611DCEC.mvfrm
Library\Bee\artifacts\mvdfrm\UnityEngine.UIModule.dll_A6A34A8EFBD2BF2E.mvfrm
Library\Bee\artifacts\mvdfrm\UnityEngine.UmbraModule.dll_BD54E289042CB303.mvfrm
Library\Bee\artifacts\mvdfrm\UnityEngine.UNETModule.dll_B52909E07A5D9D92.mvfrm
Library\Bee\artifacts\mvdfrm\UnityEngine.UnityAnalyticsCommonModule.dll_26AEBF4D1DDB3436.mvfrm
Library\Bee\artifacts\mvdfrm\UnityEngine.UnityAnalyticsModule.dll_C768FAD559BDA2DB.mvfrm
Library\Bee\artifacts\mvdfrm\UnityEngine.UnityConnectModule.dll_1AF09473E076634F.mvfrm
Library\Bee\artifacts\mvdfrm\UnityEngine.UnityCurlModule.dll_6E6E85B1191A500B.mvfrm
Library\Bee\artifacts\mvdfrm\UnityEngine.UnityTestProtocolModule.dll_D12289A5105369F9.mvfrm
Library\Bee\artifacts\mvdfrm\UnityEngine.UnityWebRequestAssetBundleModule.dll_D364962AD45BF1EC.mvfrm
Library\Bee\artifacts\mvdfrm\UnityEngine.UnityWebRequestAudioModule.dll_036C55E78A5D6070.mvfrm
Library\Bee\artifacts\mvdfrm\UnityEngine.UnityWebRequestModule.dll_7F1E49329FF4462A.mvfrm
Library\Bee\artifacts\mvdfrm\UnityEngine.UnityWebRequestTextureModule.dll_13536A0848916445.mvfrm
Library\Bee\artifacts\mvdfrm\UnityEngine.UnityWebRequestWWWModule.dll_C62AB60782881F01.mvfrm
Library\Bee\artifacts\mvdfrm\UnityEngine.VehiclesModule.dll_DCA54183634D8411.mvfrm
Library\Bee\artifacts\mvdfrm\UnityEngine.VFXModule.dll_81797FF6A4EB7E62.mvfrm
Library\Bee\artifacts\mvdfrm\UnityEngine.VideoModule.dll_6789BADB39982335.mvfrm
Library\Bee\artifacts\mvdfrm\UnityEngine.VirtualTexturingModule.dll_2006B4DB7EC05D77.mvfrm
Library\Bee\artifacts\mvdfrm\UnityEngine.VRModule.dll_F97571149D8D44A6.mvfrm
Library\Bee\artifacts\mvdfrm\UnityEngine.WindModule.dll_98D19D1FBE852682.mvfrm
Library\Bee\artifacts\mvdfrm\UnityEngine.XRModule.dll_2C34341926C79204.mvfrm
Library\Bee\artifacts\mvdfrm\Unity.Burst.Cecil.dll_A22248CB403776C5.mvfrm
Library\Bee\artifacts\mvdfrm\Unity.Burst.Cecil.Mdb.dll_DE17C1996319C342.mvfrm
Library\Bee\artifacts\mvdfrm\Unity.Burst.Cecil.Pdb.dll_F56A3A08E1CEC4C5.mvfrm
Library\Bee\artifacts\mvdfrm\Unity.Burst.Cecil.Rocks.dll_894E2E0469B0BF85.mvfrm
Library\Bee\artifacts\mvdfrm\Unity.Burst.Unsafe.dll_CDDD78BF79101B3E.mvfrm
Library\Bee\artifacts\mvdfrm\Unity.VisualScripting.Antlr3.Runtime.dll_27DD417ED1EB0146.mvfrm